Bootstrap Estimation
…
---

## Sample means

How many observations are there in `boot_dist`? What does each observation 
represent?

--

```r
boot_dist
```

```
## # A tibble: 15,000 x 2
##    replicate  stat
##        <int> <dbl>
##  1         1  72.5
##  2         2  79.7
##  3         3  63.0
##  4         4  73.1
##  5         5  67.1
##  6         6  78.1
##  7         7  92.1
##  8         8  95.7
##  9         9  88.5
## 10        10  90.8
## # … with 14,990 more rows
```
…
