Simulation-based testing
…
.pull-left[

```r
null_dist
```

```
## # A tibble: 5,000 x 2
##    replicate  stat
##        <int> <dbl>
##  1         1 104. 
##  2         2 112. 
##  3         3  92.7
##  4         4 102. 
##  5         5  93.8
##  6         6 123. 
##  7         7 104. 
##  8         8 109. 
##  9         9 106. 
## 10        10 102. 
## # … with 4,990 more rows
```
…
