…
## Analysis

### Part 1

Let's see how many homes are in the data set. 


```r
flint %>%
  count(id)
```

```
## # A tibble: 269 x 2
##       id     n
##    <dbl> <int>
##  1     1     3
##  2     2     3
##  3     4     3
##  4     5     3
##  5     6     3
##  6     7     3
##  7     8     3
##  8     9     3
##  9    12     3
## 10    13     3
## # … with 259 more rows
```
…
Next, let's look at the mean and median lead contaminant values for each zip code and draw combination. We have eight zip codes and samples taken at three times. How many combinations do we have?


```r
flint %>% 
  group_by(zip, draw) %>% 
  summarise(mean_pb = mean(lead))
```

```
## `summarise()` regrouping output by 'zip' (override with `.groups` argument)
```

```
## # A tibble: 24 x 3
## # Groups:   zip [8]
##      zip draw   mean_pb
##    <dbl> <chr>    <dbl>
##  1 48502 first     2.27
##  2 48502 second    2.81
##  3 48502 third     3.05
##  4 48503 first    11.0 
##  5 48503 second    5.66
##  6 48503 third     3.77
##  7 48504 first    13.2 
##  8 48504 second   32.6 
##  9 48504 third     5.13
## 10 48505 first     6.09
## # … with 14 more rows
```


```r
flint %>% 
  group_by(zip, draw) %>% 
  summarise(median_pb = median(lead))
```

```
## `summarise()` regrouping output by 'zip' (override with `.groups` argument)
```

```
## # A tibble: 24 x 3
## # Groups:   zip [8]
##      zip draw   median_pb
##    <dbl> <chr>      <dbl>
##  1 48502 first      2.27 
##  2 48502 second     2.81 
##  3 48502 third      3.05 
##  4 48503 first      5.15 
##  5 48503 second     2.47 
##  6 48503 third      1.23 
##  7 48504 first      2.83 
##  8 48504 second     1.22 
##  9 48504 third      0.744
## 10 48505 first      3.32 
## # … with 14 more rows
```
…
