Simulation-based testing
…
```r
*null_dist <- organ_donor %>%
  specify(response = outcome, success = "complication") %>% 
  hypothesize(null = "point", 
              p = c("complication" = 0.10, "no complication" = 0.90) 
              ) %>% 
  generate(reps = 100, type = "simulate") %>%  
  calculate(stat = "prop") 
```
]

--

```
## # A tibble: 100 x 2
##    replicate  stat
##        <dbl> <dbl>
##  1         1 0.048
##  2         2 0.097
##  3         3 0.081
##  4         4 0.081
##  5         5 0.161
##  6         6 0.081
##  7         7 0.081
##  8         8 0.032
##  9         9 0.113
## 10        10 0.113
## # … with 90 more rows
```
…
