Text analysis
…
---

## What is tidy text?

```r
text_df %>%
  unnest_tokens(word, text)
```

```
## # A tibble: 34 x 2
##     line word 
##    <int> <chr>
##  1     1 on   
##  2     1 your 
##  3     1 mark 
##  4     1 ready
##  5     1 set  
##  6     1 let's
##  7     1 go   
##  8     2 dance
##  9     2 floor
## 10     2 pro  
## # … with 24 more rows
```
…
---

## Let's get some data

```r
tswift <- genius_album(
  artist = "Taylor Swift", 
  album = "Lover"
  )

tswift
```

```
## # A tibble: 913 x 4
##    track_n  line lyric                                    track_title           
##      <int> <int> <chr>                                    <chr>                 
##  1       1     1 How many days did I spend thinking       I Forgot That You Exi…
##  2       1     2 'Bout how you did me wrong, wrong, wron… I Forgot That You Exi…
##  3       1     3 Lived in the shade you were throwing     I Forgot That You Exi…
##  4       1     4 'Til all of my sunshine was gone, gone,… I Forgot That You Exi…
##  5       1     5 And I couldn't get away from ya          I Forgot That You Exi…
##  6       1     6 In my feelings more than Drake, so yeah  I Forgot That You Exi…
##  7       1     7 Your name on my lips, tongue-tied        I Forgot That You Exi…
##  8       1     8 Free rent, living in my mind             I Forgot That You Exi…
##  9       1     9 But then something happened one magical… I Forgot That You Exi…
## 10       1    10 I forgot that you existed                I Forgot That You Exi…
## # … with 903 more rows
```
…
---

## Tidy up your lyrics!

```r
tswift_lyrics <- tswift %>%
  unnest_tokens(word, lyric)

tswift_lyrics
```

```
## # A tibble: 6,844 x 4
##    track_n  line track_title               word    
##      <int> <int> <chr>                     <chr>   
##  1       1     1 I Forgot That You Existed how     
##  2       1     1 I Forgot That You Existed many    
##  3       1     1 I Forgot That You Existed days    
##  4       1     1 I Forgot That You Existed did     
##  5       1     1 I Forgot That You Existed i       
##  6       1     1 I Forgot That You Existed spend   
##  7       1     1 I Forgot That You Existed thinking
##  8       1     2 I Forgot That You Existed bout    
##  9       1     2 I Forgot That You Existed how     
## 10       1     2 I Forgot That You Existed you     
## # … with 6,834 more rows
```

---

## What are the most common words?

```r
tswift_lyrics %>%
  count(word) %>%
  arrange(desc(n))
```

```
## # A tibble: 1,029 x 2
##    word      n
##    <chr> <int>
##  1 i       396
##  2 you     263
##  3 the     243
##  4 and     155
##  5 my      148
##  6 me      132
##  7 a       117
##  8 to      115
##  9 oh      102
## 10 in       96
## # … with 1,019 more rows
```
…
---

## What are the most common words?

```r
tswift_lyrics %>%
  anti_join(stop_words) %>%
  count(word) %>%
  arrange(desc(n))
```

```
## # A tibble: 759 x 2
##    word         n
##    <chr>    <int>
##  1 ooh         69
##  2 love        44
##  3 wanna       42
##  4 daylight    40
##  5 ah          29
##  6 baby        29
##  7 yeah        25
##  8 street      23
##  9 walk        19
## 10 home        18
## # … with 749 more rows
```
…
- The sentiment attached to each word is given by a *lexicon*, which may be 
downloaded from external sources

---

## Sentiment lexicons

.pull-left[

```r
get_sentiments("afinn")
```

```
## # A tibble: 2,477 x 2
##    word       value
##    <chr>      <dbl>
##  1 abandon       -2
##  2 abandoned     -2
##  3 abandons      -2
##  4 abducted      -2
##  5 abduction     -2
##  6 abductions    -2
##  7 abhor         -3
##  8 abhorred      -3
##  9 abhorrent     -3
## 10 abhors        -3
## # … with 2,467 more rows
```
]

--

.pull-right[

```r
get_sentiments("bing") 
```

```
## # A tibble: 6,786 x 2
##    word        sentiment
##    <chr>       <chr>    
##  1 2-faces     negative 
##  2 abnormal    negative 
##  3 abolish     negative 
##  4 abominable  negative 
##  5 abominably  negative 
##  6 abominate   negative 
##  7 abomination negative 
##  8 abort       negative 
##  9 aborted     negative 
## 10 aborts      negative 
## # … with 6,776 more rows
```
]

---

## Sentiment lexicons

.pull-left[

```r
get_sentiments("nrc")
```

```
## # A tibble: 13,901 x 2
##    word        sentiment
##    <chr>       <chr>    
##  1 abacus      trust    
##  2 abandon     fear     
##  3 abandon     negative 
##  4 abandon     sadness  
##  5 abandoned   anger    
##  6 abandoned   fear     
##  7 abandoned   negative 
##  8 abandoned   sadness  
##  9 abandonment anger    
## 10 abandonment fear     
## # … with 13,891 more rows
```
]

--

.pull-right[

```r
get_sentiments("loughran") 
```

```
## # A tibble: 4,150 x 2
##    word         sentiment
##    <chr>        <chr>    
##  1 abandon      negative 
##  2 abandoned    negative 
##  3 abandoning   negative 
##  4 abandonment  negative 
##  5 abandonments negative 
##  6 abandons     negative 
##  7 abdicated    negative 
##  8 abdicates    negative 
##  9 abdicating   negative 
## 10 abdication   negative 
## # … with 4,140 more rows
```
…
- Summing up each word's sentiment may result in a neutral sentiment, even if there are strong positive and negative sentiments in the body

---

## Sentiments in lyrics

```r
tswift_lyrics %>%
  inner_join(get_sentiments("bing")) %>%
  count(sentiment, word, sort = TRUE) 
```

```
## # A tibble: 165 x 3
##    sentiment word        n
##    <chr>     <chr>   <int>
##  1 positive  like       68
##  2 positive  love       44
##  3 positive  right      28
##  4 negative  bad        17
##  5 positive  bless      15
##  6 positive  darling    15
##  7 positive  better     13
##  8 negative  hate       12
##  9 negative  lose       12
## 10 positive  fancy      10
## # … with 155 more rows
```
…
---

## Scoring sentiments

.midi[

```r
tswift_lyrics %>%
  anti_join(stop_words) %>%
  left_join(get_sentiments("afinn"))
```

```
## # A tibble: 2,047 x 5
##    track_n  line track_title               word     value
##      <int> <int> <chr>                     <chr>    <dbl>
##  1       1     1 I Forgot That You Existed days        NA
##  2       1     1 I Forgot That You Existed spend       NA
##  3       1     1 I Forgot That You Existed thinking    NA
##  4       1     2 I Forgot That You Existed bout        NA
##  5       1     2 I Forgot That You Existed wrong       -2
##  6       1     2 I Forgot That You Existed wrong       -2
##  7       1     2 I Forgot That You Existed wrong       -2
##  8       1     3 I Forgot That You Existed lived       NA
##  9       1     3 I Forgot That You Existed shade       NA
## 10       1     3 I Forgot That You Existed throwing    NA
## # … with 2,037 more rows
```
…
