Web scraping
…
```r
imdb_top_250 <- tibble(
  title = titles, year = years, score = scores)
```
]

---

```r
imdb_top_250
```

```
## # A tibble: 250 x 3
##    title                                              year score
##    <chr>                                             <dbl> <dbl>
##  1 The Shawshank Redemption                           1994   9.2
##  2 The Godfather                                      1972   9.1
##  3 The Godfather: Part II                             1974   9  
##  4 The Dark Knight                                    2008   9  
##  5 12 Angry Men                                       1957   8.9
##  6 Schindler's List                                   1993   8.9
##  7 The Lord of the Rings: The Return of the King      2003   8.9
##  8 Pulp Fiction                                       1994   8.8
##  9 The Good, the Bad and the Ugly                     1966   8.8
## 10 The Lord of the Rings: The Fellowship of the Ring  2001   8.8
## # … with 240 more rows
```
…
