Functions + automation
…
class: middle center

## [Click for PDF of slides](26-functions.pdf)

---

class: middle

## Edinburgh College of Art Collection

---

```
## # A tibble: 2,909 x 3
##    title                  artist         link                                   
##    <chr>                  <chr>          <chr>                                  
##  1 Untitled (1963)        [Unknown] Bla… https://collections.ed.ac.uk/art/recor…
##  2 Rooftops               A McIntosh     https://collections.ed.ac.uk/art/recor…
##  3 Seated Male Nude (19 … A Robson       https://collections.ed.ac.uk/art/recor…
##  4 Portrait of a Man (19… A Robson       https://collections.ed.ac.uk/art/recor…
##  5 Portrait of a Woman (… A Scott        https://collections.ed.ac.uk/art/recor…
##  6 Poirtrait of a Man     A Sinclair     https://collections.ed.ac.uk/art/recor…
##  7 Portrait of a Man      A Sinclair     https://collections.ed.ac.uk/art/recor…
##  8 Portrait of a Man      A Sinclair     https://collections.ed.ac.uk/art/recor…
##  9 Standing Male Nude     A Wrever       https://collections.ed.ac.uk/art/recor…
## 10 Untitled (Unknown)     A. Geraldine … https://collections.ed.ac.uk/art/recor…
## # … with 2,899 more rows
```
…
## Go to each page, scrape art info 

- Map the `scrape_art_info()` function
- to each element of `uoe_art$link`
- and return a data frame by row binding

```r
uoe_art_info <- map_df(uoe_art$link, scrape_art_info)
```

---

```
## # A tibble: 500 x 14
##    Artist Title Date  Period Description Material Dimensions Collection
##    <chr>  <chr> <chr> <chr>  <chr>       <chr>    <chr>      <chr>     
##  1 [Unkn… Unti… 1963  20th … Portrait o… graphit… 45.1cm H … Art Colle…
##  2 A McI… Roof… <NA>  <NA>   <NA>        paint (… <NA>       Art Colle…
##  3 A Rob… Seat… 19 N… 20th … Gained his… graphit… <NA>       Art Colle…
##  4 A Rob… Port… 19 N… 20th … Gained his… graphit… <NA>       Art Colle…
##  5 A Sco… Port… 1953  20th … Drawing fr… graphit… <NA>       Art Colle…
##  6 A Sin… Poir… <NA>  <NA>   <NA>        <NA>     <NA>       Art Colle…
##  7 A Sin… Port… <NA>  <NA>   <NA>        graphit… <NA>       Art Colle…
##  8 A Sin… Port… <NA>  <NA>   <NA>        graphit… <NA>       Art Colle…
##  9 A Wre… Stan… <NA>  <NA>   <NA>        graphit… <NA>       Art Colle…
## 10 A. Ge… Unti… Unkn… <NA>   Female nud… <NA>     75.2cm H … Art Colle…
## # … with 490 more rows, and 6 more variables: Classification <chr>,
## #   Signature <chr>, `Accession Number` <chr>, link <chr>, `Alternative
## #   Title` <chr>, `Place Made` <chr>
```
…
